#TRAIN
-1
01-24.png
01-184.png
01-182.png
01-96.png
01-45.png
01-83.png
01-22.png
01-179.png
01-151.png
01-150.png
01-56.png
01-98.png
01-27.png
01-105.png
01-292.png
01-57.png
01-281.png
01-63.png
01-157.png
01-136.png
01-563.png
01-568.png
01-144.png
01-31.png
01-586.png
01-104.png
01-115.png
01-61.png
01-177.png
01-67.png
01-575.png
01-573.png
01-10.png
01-93.png
01-255.png
01-584.png
01-92.png
01-43.png
01-14.png
01-23.png
01-66.png
01-263.png
01-111.png
01-559.png
01-112.png
01-176.png
01-555.png
01-108.png
01-189.png
01-01.png
01-80.png
01-152.png
01-62.png
01-39.png
01-403.png
01-173.png
01-156.png
01-117.png
01-77.png
01-159.png
01-130.png
01-186.png
01-32.png
01-591.png
01-227.png
01-47.png
01-17.png
01-129.png
01-139.png
01-185.png
01-34.png
01-169.png
01-249.png
01-576.png
01-148.png
01-132.png
01-133.png
01-236.png
01-192.png
01-135.png
01-71.png
01-48.png
01-29.png
01-178.png
01-145.png
01-191.png
01-585.png
01-85.png
01-589.png
01-65.png
01-264.png
01-94.png
01-15.png
01-89.png
01-53.png
01-04.png
01-59.png
01-36.png
01-02.png
01-219.png
01-180.png
01-91.png
01-116.png
01-588.png
01-109.png
01-64.png
01-225.png
01-306.png
01-40.png
01-49.png
01-572.png
01-76.png
01-128.png
01-183.png
01-566.png
01-163.png
01-605.png
01-07.png
01-231.png
01-86.png
01-172.png
01-174.png
01-165.png
01-607.png
01-13.png
01-50.png
01-402.png
01-171.png
01-103.png
01-594.png
01-143.png
01-141.png
01-20.png
01-18.png
01-121.png
01-00.png
01-146.png
01-06.png
01-37.png
01-55.png
01-30.png
01-564.png
01-21.png
01-78.png
01-187.png
01-09.png
01-12.png
01-110.png
01-74.png
01-113.png
01-332.png
01-137.png
01-52.png
01-90.png
01-73.png
01-33.png
01-42.png
01-19.png
01-147.png
01-149.png
01-193.png
01-127.png
01-25.png
01-190.png
01-05.png
01-134.png
01-99.png
01-03.png
01-81.png
01-131.png
01-579.png
01-68.png
01-287.png
01-102.png
01-122.png
01-574.png
01-271.png
01-557.png
01-54.png
01-140.png
01-188.png
01-138.png
01-123.png
01-560.png
01-124.png
01-114.png
01-100.png
01-600.png
01-581.png
01-181.png
01-162.png
01-26.png
01-592.png
01-161.png
01-88.png
01-08.png
01-154.png
-2
02-32.png
02-44.png
02-157.png
02-171.png
02-229.png
02-154.png
02-49.png
02-187.png
02-113.png
02-219.png
02-22.png
02-230.png
02-195.png
02-177.png
02-225.png
02-27.png
02-163.png
02-12.png
02-164.png
02-197.png
02-16.png
02-82.png
02-21.png
02-233.png
02-78.png
02-223.png
02-54.png
02-152.png
02-34.png
02-244.png
02-243.png
02-109.png
02-99.png
02-111.png
02-239.png
02-220.png
02-159.png
02-194.png
02-25.png
02-160.png
02-01.png
02-166.png
02-117.png
02-208.png
02-184.png
02-103.png
02-100.png
02-141.png
02-30.png
02-123.png
02-203.png
02-104.png
02-155.png
02-91.png
02-83.png
02-26.png
02-94.png
02-62.png
02-105.png
02-136.png
02-161.png
02-215.png
02-137.png
02-211.png
02-213.png
02-120.png
02-97.png
02-81.png
02-221.png
02-167.png
02-227.png
02-98.png
02-217.png
02-206.png
02-204.png
02-196.png
02-112.png
02-15.png
02-68.png
02-135.png
02-150.png
02-176.png
02-139.png
02-11.png
02-73.png
02-24.png
02-175.png
02-198.png
02-77.png
02-130.png
02-232.png
02-249.png
02-107.png
02-45.png
02-90.png
02-04.png
02-240.png
02-231.png
02-114.png
02-202.png
02-180.png
02-216.png
02-18.png
02-140.png
02-237.png
02-69.png
02-06.png
02-88.png
02-200.png
02-59.png
02-143.png
02-52.png
02-86.png
02-02.png
02-84.png
02-192.png
02-124.png
02-43.png
02-42.png
02-224.png
02-148.png
02-29.png
02-40.png
02-214.png
02-212.png
02-222.png
02-08.png
02-116.png
02-168.png
02-146.png
02-65.png
02-46.png
02-129.png
02-181.png
02-186.png
02-172.png
02-173.png
02-133.png
02-95.png
02-121.png
02-09.png
02-55.png
02-74.png
02-248.png
02-138.png
02-235.png
02-122.png
02-92.png
02-118.png
02-35.png
02-250.png
02-199.png
02-228.png
02-238.png
02-39.png
02-05.png
02-131.png
02-31.png
02-153.png
02-67.png
02-64.png
02-57.png
02-79.png
02-126.png
02-80.png
02-119.png
02-47.png
02-151.png
02-03.png
02-210.png
02-190.png
02-70.png
02-183.png
02-93.png
02-58.png
02-108.png
02-245.png
02-50.png
02-127.png
02-218.png
02-14.png
02-13.png
02-23.png
02-165.png
02-251.png
02-07.png
02-76.png
02-75.png
02-20.png
-3
04-111.png
04-13.png
04-107.png
03-901.png
03-863.png
03-820.png
03-892.png
03-1527.png
03-853.png
03-1594.png
03-1589.png
03-84.png
03-880.png
03-910.png
04-99.png
03-810.png
03-1529.png
03-67.png
04-125.png
03-134.png
03-1535.png
04-212.png
03-1522.png
03-53.png
03-74.png
03-809.png
04-124.png
03-65.png
03-825.png
03-1586.png
04-103.png
03-866.png
03-77.png
03-54.png
03-911.png
03-1604.png
03-565.png
03-826.png
04-109.png
03-875.png
03-1595.png
03-31.png
03-1590.png
03-1600.png
03-1526.png
03-93.png
03-29.png
03-1591.png
04-127.png
03-1118.png
03-811.png
03-1530.png
03-92.png
03-22.png
03-1534.png
04-10.png
03-91.png
03-1596.png
03-1588.png
03-81.png
03-26.png
03-80.png
03-1531.png
03-823.png
03-851.png
03-66.png
04-105.png
03-75.png
03-857.png
03-76.png
04-89.png
03-73.png
03-827.png
03-899.png
03-843.png
03-28.png
03-1592.png
03-1599.png
04-104.png
04-94.png
04-85.png
04-219.png
03-68.png
03-1593.png
03-72.png
03-89.png
03-860.png
03-800.png
04-232.png
03-90.png
03-1119.png
03-1120.png
03-559.png
03-61.png
03-830.png
04-154.png
03-817.png
03-822.png
03-842.png
03-894.png
04-14.png
03-51.png
03-27.png
04-100.png
03-804.png
03-1532.png
04-227.png
03-1524.png
03-33.png
03-79.png
03-1601.png
03-85.png
03-818.png
03-64.png
03-799.png
04-96.png
04-02.png
03-877.png
03-1528.png
03-24.png
04-97.png
03-62.png
03-897.png
03-805.png
03-821.png
04-101.png
03-1117.png
04-80.png
04-77.png
03-86.png
04-121.png
04-95.png
03-868.png
03-52.png
03-824.png
03-806.png
03-838.png
03-819.png
03-1597.png
04-123.png
03-60.png
04-151.png
03-32.png
03-815.png
03-25.png
03-797.png
03-829.png
03-1533.png
03-1582.png
04-98.png
04-150.png
03-59.png
03-1525.png
03-23.png
04-209.png
03-63.png
#TEST
-1
01-598.png
01-582.png
01-155.png
01-69.png
01-72.png
01-70.png
01-106.png
01-577.png
01-79.png
01-46.png
01-120.png
01-583.png
01-101.png
01-11.png
01-570.png
01-170.png
01-97.png
01-550.png
01-587.png
01-51.png
01-87.png
01-590.png
01-84.png
01-160.png
01-602.png
01-166.png
01-601.png
01-35.png
01-164.png
01-75.png
01-125.png
01-603.png
01-44.png
01-400.png
01-578.png
01-107.png
01-571.png
01-558.png
01-167.png
01-567.png
01-16.png
01-142.png
01-308.png
01-158.png
01-118.png
01-270.png
01-82.png
01-175.png
01-28.png
01-168.png
01-126.png
01-119.png
01-95.png
01-153.png
01-348.png
01-565.png
01-401.png
01-38.png
01-554.png
01-60.png
01-398.png
01-320.png
01-194.png
01-58.png
01-41.png
-2
02-174.png
02-71.png
02-41.png
02-53.png
02-156.png
02-48.png
02-205.png
02-66.png
02-207.png
02-106.png
02-85.png
02-147.png
02-170.png
02-38.png
02-110.png
02-158.png
02-00.png
02-145.png
02-149.png
02-185.png
02-10.png
02-37.png
02-226.png
02-102.png
02-179.png
02-125.png
02-142.png
02-193.png
02-36.png
02-51.png
02-169.png
02-188.png
02-61.png
02-241.png
02-19.png
02-115.png
02-246.png
02-63.png
02-56.png
02-209.png
02-236.png
02-89.png
02-162.png
02-72.png
02-189.png
02-101.png
02-28.png
02-128.png
02-17.png
02-242.png
02-132.png
02-234.png
02-134.png
02-201.png
02-182.png
02-96.png
02-247.png
02-60.png
02-87.png
02-191.png
02-144.png
02-178.png
-3
03-1605.png
04-90.png
03-856.png
03-171.png
03-70.png
03-803.png
03-178.png
03-890.png
03-71.png
04-102.png
03-828.png
03-874.png
03-1523.png
04-126.png
04-165.png
03-206.png
04-92.png
03-69.png
04-108.png
03-1603.png
03-1585.png
03-807.png
03-882.png
03-1598.png
03-907.png
03-1584.png
03-808.png
04-93.png
03-816.png
03-885.png
03-870.png
03-841.png
03-844.png
04-128.png
03-865.png
03-78.png
04-106.png
04-05.png
03-859.png
03-858.png
03-1606.png
03-869.png
03-212.png
03-30.png
03-801.png
03-1126.png
03-1587.png
03-905.png
04-82.png
03-1583.png
03-58.png
03-221.png
